tb/sram_2port_bank/inv_fo4.vcd
$date
	Fri Nov 07 18:03:46 2025
$end
$version
	Icarus Verilog
$end
$timescale
	1ns
$end
$scope module inv_fo4_tb $end
$var wire 10 ! clkneg [9:0] $end
$var wire 1 " out $end
$var wire 1 # vdd $end
$var wire 1 $ vss $end
$var wire 1 % instFlag $end
$var wire 10 & clkpos [9:0] $end
$var wire 1 ' Mclk $end
$var reg 1 ( clk $end
$var reg 1 ) in $end
$var reg 1 * reset $end
$scope module bennett $end
$var wire 1 ( clk $end
$var wire 1 * reset $end
$var parameter 65 + MAX_STATE $end
$var parameter 32 , PHASES $end
$var parameter 32 - STATE_WIDTH $end
$var reg 1 ' Mclk $end
$var reg 10 . clkp [9:0] $end
$var reg 1 % instFlag $end
$var reg 5 / state [4:0] $end
$scope begin $unm_blk_13 $end
$var integer 32 0 i [31:0] $end
$upscope $end
$upscope $end
$scope module dut $end
$var wire 1 1 clkneg $end
$var wire 1 2 clkpos $end
$var wire 1 ) in $end
$var wire 1 " out $end
$var wire 1 # vdd $end
$var wire 1 $ vss $end
$var parameter 56 3 CDS_CELLNAME $end
$var parameter 48 4 CDS_LIBNAME $end
$var parameter 72 5 CDS_VIEWNAME $end
$scope module MN0 $end
$var wire 1 $ b $end
$var wire 1 " d $end
$var wire 1 ) g $end
$var wire 1 1 s $end
$var wire 1 6 vdd $end
$var wire 1 7 vss $end
$upscope $end
$scope module MN1 $end
$var wire 1 $ b $end
$var wire 1 " d $end
$var wire 1 ) g $end
$var wire 1 1 s $end
$var wire 1 8 vdd $end
$var wire 1 9 vss $end
$upscope $end
$scope module MN2 $end
$var wire 1 $ b $end
$var wire 1 " d $end
$var wire 1 ) g $end
$var wire 1 1 s $end
$var wire 1 : vdd $end
$var wire 1 ; vss $end
$upscope $end
$scope module MN3 $end
$var wire 1 $ b $end
$var wire 1 " d $end
$var wire 1 ) g $end
$var wire 1 1 s $end
$var wire 1 < vdd $end
$var wire 1 = vss $end
$upscope $end
$scope module MP0 $end
$var wire 1 # b $end
$var wire 1 2 d $end
$var wire 1 ) g $end
$var wire 1 " s $end
$var wire 1 > vdd $end
$var wire 1 ? vss $end
$upscope $end
$scope module MP1 $end
$var wire 1 # b $end
$var wire 1 2 d $end
$var wire 1 ) g $end
$var wire 1 " s $end
$var wire 1 @ vdd $end
$var wire 1 A vss $end
$upscope $end
$scope module MP2 $end
$var wire 1 # b $end
$var wire 1 2 d $end
$var wire 1 ) g $end
$var wire 1 " s $end
$var wire 1 B vdd $end
$var wire 1 C vss $end
$upscope $end
$scope module MP3 $end
$var wire 1 # b $end
$var wire 1 2 d $end
$var wire 1 ) g $end
$var wire 1 " s $end
$var wire 1 D vdd $end
$var wire 1 E vss $end
$upscope $end
$upscope $end
$upscope $end
$enddefinitions $end
$comment Show the parameter values. $end
$dumpall
b11100110110001101101000011001010110110101100001011101000110100101100011 5
b10011010100100101010000010100110011001000110101 4
b1101001011011100111011001011111011001100110111100110100 3
b101 -
b1010 ,
b10101 +
$end
#0
$dumpvars
0E
1D
0C
1B
0A
1@
0?
1>
0=
1<
0;
1:
09
18
07
16
x2
x1
bx 0
b0 /
b0 .
1*
x)
0(
x'
b0 &
1%
0$
1#
x"
b1111111111 !
$end
#5
0'
1(
#10
11
02
0"
0(
0)
0*
#15
b111111111x !
b0x &
b0x .
b1010 0
0%
b1 /
1(
#20
0(
#25
b11111111x0 !
b0x1 &
b0x1 .
b1010 0
b10 /
1(
#30
0(
#35
b1111111x00 !
b0x11 &
b0x11 .
b1010 0
b11 /
1(
#40
0(
#45
b111111x000 !
b0x111 &
b0x111 .
b1010 0
b100 /
1(
#50
0(
#55
x1
x2
x"
b11111x0000 !
b0x1111 &
b0x1111 .
b1010 0
b101 /
1(
#60
0(
#65
01
12
1"
b1111x00000 !
b0x11111 &
b0x11111 .
b1010 0
b110 /
1(
#70
0(
#75
b111x000000 !
b0x111111 &
b0x111111 .
b1010 0
b111 /
1(
#80
0(
#85
b11x0000000 !
b0x1111111 &
b0x1111111 .
b1010 0
b1000 /
1(
#90
0(
#95
b1x00000000 !
b0x11111111 &
b0x11111111 .
b1010 0
b1001 /
1(
#100
0(
#105
bx000000000 !
bx111111111 &
bx111111111 .
b1010 0
b1010 /
1(
#110
0(
#115
b0 !
b1111111111 &
b1111111111 .
b1011 /
1'
1(
#120
0(
#125
bx000000000 !
bx111111111 &
bx111111111 .
b1010 0
b1100 /
1(
#130
0(
#135
b1x00000000 !
b0x11111111 &
b0x11111111 .
b1010 0
b1101 /
1(
#140
0(
#145
b11x0000000 !
b0x1111111 &
b0x1111111 .
b1010 0
b1110 /
1(
#150
0(
#155
b111x000000 !
b0x111111 &
b0x111111 .
b1010 0
b1111 /
1(
#160
0(
#165
b1111x00000 !
b0x11111 &
b0x11111 .
b1010 0
b10000 /
1(
#170
0(
#175
x1
x2
x"
b11111x0000 !
b0x1111 &
b0x1111 .
b1010 0
b10001 /
1(
#180
0(
#185
11
02
0"
b111111x000 !
b0x111 &
b0x111 .
b1010 0
b10010 /
1(
#190
0(
#195
b1111111x00 !
b0x11 &
b0x11 .
b1010 0
b10011 /
1(
#200
0(
#205
b11111111x0 !
b0x1 &
b0x1 .
b1010 0
b10100 /
1(
#210
0(
#215
b111111111x !
b0x &
b0x .
b1010 0
b10101 /
1(
#220
0(
#225
b1111111111 !
1%
b0 &
b0 .
b0 /
1(
#230
0(
#235
b111111111x !
b0x &
b0x .
b1010 0
0%
b1 /
0'
1(
#240
0(
#245
b11111111x0 !
b0x1 &
b0x1 .
b1010 0
b10 /
1(
#250
0(
#255
1"
1)
b1111111x00 !
b0x11 &
b0x11 .
b1010 0
b11 /
1(
#260
0(
#265
b111111x000 !
b0x111 &
b0x111 .
b1010 0
b100 /
1(
#270
0(
#275
x1
x2
x"
b11111x0000 !
b0x1111 &
b0x1111 .
b1010 0
b101 /
1(
#280
0(
#285
01
12
0"
b1111x00000 !
b0x11111 &
b0x11111 .
b1010 0
b110 /
1(
#290
0(
#295
b111x000000 !
b0x111111 &
b0x111111 .
b1010 0
b111 /
1(
#300
0(
#305
b11x0000000 !
b0x1111111 &
b0x1111111 .
b1010 0
b1000 /
1(
#310
0(
#315
b1x00000000 !
b0x11111111 &
b0x11111111 .
b1010 0
b1001 /
1(
#320
0(
#325
bx000000000 !
bx111111111 &
bx111111111 .
b1010 0
b1010 /
1(
#330
0(
#335
b0 !
b1111111111 &
b1111111111 .
b1011 /
1'
1(
#340
0(
#345
bx000000000 !
bx111111111 &
bx111111111 .
b1010 0
b1100 /
1(
#350
0(
#355
b1x00000000 !
b0x11111111 &
b0x11111111 .
b1010 0
b1101 /
1(
#360
0(
#365
b11x0000000 !
b0x1111111 &
b0x1111111 .
b1010 0
b1110 /
1(
#370
0(
#375
b111x000000 !
b0x111111 &
b0x111111 .
b1010 0
b1111 /
1(
#380
0(
#385
b1111x00000 !
b0x11111 &
b0x11111 .
b1010 0
b10000 /
1(
#390
0(
#395
x1
x2
x"
b11111x0000 !
b0x1111 &
b0x1111 .
b1010 0
b10001 /
1(
#400
0(
#405
11
02
1"
b111111x000 !
b0x111 &
b0x111 .
b1010 0
b10010 /
1(
#410
0(
#415
b1111111x00 !
b0x11 &
b0x11 .
b1010 0
b10011 /
1(
#420
0(
#425
b11111111x0 !
b0x1 &
b0x1 .
b1010 0
b10100 /
1(
#430
0(
#435
b111111111x !
b0x &
b0x .
b1010 0
b10101 /
1(
#440
0(
#445
b1111111111 !
1%
b0 &
b0 .
b0 /
1(
#450
0(
#455
b111111111x !
b0x &
b0x .
b1010 0
0%
b1 /
0'
1(
#460
0(
#465
b11111111x0 !
b0x1 &
b0x1 .
b1010 0
b10 /
1(
#470
0(
#475
b1111111x00 !
b0x11 &
b0x11 .
b1010 0
b11 /
1(
#480
0(
#485
b111111x000 !
b0x111 &
b0x111 .
b1010 0
b100 /
1(
#490
0(
#495
x1
x2
x"
b11111x0000 !
b0x1111 &
b0x1111 .
b1010 0
b101 /
1(
#500
0(
#505
01
12
0"
b1111x00000 !
b0x11111 &
b0x11111 .
b1010 0
b110 /
1(
#510
0(
#515
b111x000000 !
b0x111111 &
b0x111111 .
b1010 0
b111 /
1(
#520
0(
#525
b11x0000000 !
b0x1111111 &
b0x1111111 .
b1010 0
b1000 /
1(
#530
0(
#535
b1x00000000 !
b0x11111111 &
b0x11111111 .
b1010 0
b1001 /
1(
#540
0(
#545
bx000000000 !
bx111111111 &
bx111111111 .
b1010 0
b1010 /
1(
#550
0(
#555
b0 !
b1111111111 &
b1111111111 .
b1011 /
1'
1(
#560
0(
#565
bx000000000 !
bx111111111 &
bx111111111 .
b1010 0
b1100 /
1(
#570
0(
#575
b1x00000000 !
b0x11111111 &
b0x11111111 .
b1010 0
b1101 /
1(
#580
0(
#585
b11x0000000 !
b0x1111111 &
b0x1111111 .
b1010 0
b1110 /
1(
#590
0(
#595
b111x000000 !
b0x111111 &
b0x111111 .
b1010 0
b1111 /
1(
#600
0(
#605
b1111x00000 !
b0x11111 &
b0x11111 .
b1010 0
b10000 /
1(
#610
0(
#615
x1
x2
x"
b11111x0000 !
b0x1111 &
b0x1111 .
b1010 0
b10001 /
1(
#620
0(
#625
11
02
1"
b111111x000 !
b0x111 &
b0x111 .
b1010 0
b10010 /
1(
#630
0(
#635
b1111111x00 !
b0x11 &
b0x11 .
b1010 0
b10011 /
1(
#640
0(
#645
b11111111x0 !
b0x1 &
b0x1 .
b1010 0
b10100 /
1(
#650
0(
#655
b111111111x !
b0x &
b0x .
b1010 0
b10101 /
1(
