tb/sram_2port_bank/sram_write_driver.vcd
$date
	Fri Nov 07 19:50:03 2025
$end
$version
	Icarus Verilog
$end
$timescale
	1ns
$end
$scope module sram_2port_writedriver_tb $end
$var wire 1 ! bitA $end
$var wire 1 " bitnotA $end
$var wire 10 # clkneg [9:0] $end
$var wire 10 $ clkpos_strong [9:0] $end
$var wire 1 % vdd $end
$var wire 1 & vss $end
$var wire 1 ' instFlag $end
$var wire 10 ( clkpos [9:0] $end
$var wire 1 ) Mclk $end
$var parameter 32 * WIDTH $end
$var reg 1 + clk $end
$var reg 1 , in $end
$var reg 1 - reset $end
$var reg 1 . write $end
$scope module bennett $end
$var wire 1 + clk $end
$var wire 1 - reset $end
$var parameter 65 / MAX_STATE $end
$var parameter 32 0 PHASES $end
$var parameter 32 1 STATE_WIDTH $end
$var reg 1 ) Mclk $end
$var reg 10 2 clkp [9:0] $end
$var reg 1 ' instFlag $end
$var reg 5 3 state [4:0] $end
$scope begin $unm_blk_13 $end
$var integer 32 4 i [31:0] $end
$upscope $end
$upscope $end
$scope module dut $end
$var wire 1 ! bitA $end
$var wire 1 " bitnotA $end
$var wire 1 5 clkneg1 $end
$var wire 1 6 clkneg2 $end
$var wire 1 7 clkpos1 $end
$var wire 1 8 clkpos2 $end
$var wire 1 , in $end
$var wire 1 9 net1 $end
$var wire 1 : net2 $end
$var wire 1 % vdd $end
$var wire 1 & vss $end
$var wire 1 . write $end
$var parameter 176 ; CDS_CELLNAME $end
$var parameter 48 < CDS_LIBNAME $end
$var parameter 72 = CDS_VIEWNAME $end
$scope module MN0 $end
$var wire 1 & b $end
$var wire 1 " d $end
$var wire 1 . g $end
$var wire 1 : s $end
$var wire 1 > vdd $end
$var wire 1 ? vss $end
$upscope $end
$scope module MN11 $end
$var wire 1 & b $end
$var wire 1 ! d $end
$var wire 1 . g $end
$var wire 1 9 s $end
$var wire 1 @ vdd $end
$var wire 1 A vss $end
$upscope $end
$scope module MN7 $end
$var wire 1 & b $end
$var wire 1 : d $end
$var wire 1 , g $end
$var wire 1 5 s $end
$var wire 1 B vdd $end
$var wire 1 C vss $end
$upscope $end
$scope module MN8 $end
$var wire 1 & b $end
$var wire 1 9 d $end
$var wire 1 : g $end
$var wire 1 6 s $end
$var wire 1 D vdd $end
$var wire 1 E vss $end
$upscope $end
$scope module MP8 $end
$var wire 1 % b $end
$var wire 1 7 d $end
$var wire 1 , g $end
$var wire 1 : s $end
$var wire 1 F vdd $end
$var wire 1 G vss $end
$upscope $end
$scope module MP9 $end
$var wire 1 % b $end
$var wire 1 8 d $end
$var wire 1 : g $end
$var wire 1 9 s $end
$var wire 1 H vdd $end
$var wire 1 I vss $end
$upscope $end
$upscope $end
$upscope $end
$enddefinitions $end
$comment Show the parameter values. $end
$dumpall
b11100110110001101101000011001010110110101100001011101000110100101100011 =
b10011010100100101010000010100110011001000110101 <
b1110011011100100110000101101101010111110011001001110000011011110111001001110100010111110111011101110010011010010111010001100101011001000111001001101001011101100110010101110010 ;
b101 1
b1010 0
b10101 /
b1010 *
$end
#0
$dumpvars
0I
1H
0G
1F
0E
1D
0C
1B
0A
1@
0?
1>
x:
x9
x8
x7
x6
x5
bx 4
b0 3
b0 2
x.
1-
x,
0+
x)
b0 (
1'
0&
1%
b0 $
b1111111111 #
x"
x!
$end
#5
0)
1+
#10
z"
z!
15
07
0:
0+
0,
0.
0-
#15
b111111111x #
b0x $
b0x (
b0x 2
b1010 4
0'
b1 3
1+
#20
0+
#25
b11111111x0 #
b0x1 $
b0x1 (
b0x1 2
b1010 4
b10 3
1+
#30
0+
#35
b1111111x00 #
b0x11 $
b0x11 (
b0x11 2
b1010 4
b11 3
1+
#40
0+
#45
16
1:
08
09
1,
b111111x000 #
b0x111 $
b0x111 (
b0x111 2
b1010 4
b100 3
1+
#50
0+
#55
b11111x0000 #
b0x1111 $
b0x1111 (
b0x1111 2
b1010 4
b101 3
1+
#60
0+
#65
x5
x7
x:
19
b1111x00000 #
b0x11111 $
b0x11111 (
b0x11111 2
b1010 4
b110 3
1+
#70
0+
#75
05
x6
17
0:
x8
x9
b111x000000 #
b0x111111 $
b0x111111 (
b0x111111 2
b1010 4
b111 3
1+
#80
0+
#85
06
18
19
b11x0000000 #
b0x1111111 $
b0x1111111 (
b0x1111111 2
b1010 4
b1000 3
1+
#90
0+
#95
0"
1!
1.
b1x00000000 #
b0x11111111 $
b0x11111111 (
b0x11111111 2
b1010 4
b1001 3
1+
#100
0+
#105
bx000000000 #
bx111111111 $
bx111111111 (
bx111111111 2
b1010 4
b1010 3
1+
#110
0+
#115
b0 #
b1111111111 $
b1111111111 (
b1111111111 2
b1011 3
1)
1+
#120
0+
#125
bx000000000 #
bx111111111 $
bx111111111 (
bx111111111 2
b1010 4
b1100 3
1+
#130
0+
#135
z"
z!
0.
b1x00000000 #
b0x11111111 $
b0x11111111 (
b0x11111111 2
b1010 4
b1101 3
1+
#140
0+
#145
b11x0000000 #
b0x1111111 $
b0x1111111 (
b0x1111111 2
b1010 4
b1110 3
1+
#150
0+
#155
x6
x8
x9
b111x000000 #
b0x111111 $
b0x111111 (
b0x111111 2
b1010 4
b1111 3
1+
#160
0+
#165
x5
16
x7
x:
08
09
b1111x00000 #
b0x11111 $
b0x11111 (
b0x11111 2
b1010 4
b10000 3
1+
#170
0+
#175
15
x6
07
1:
x8
x9
b11111x0000 #
b0x1111 $
b0x1111 (
b0x1111 2
b1010 4
b10001 3
1+
#180
0+
#185
b111111x000 #
b0x111 $
b0x111 (
b0x111 2
b1010 4
b10010 3
1+
#190
0+
#195
b1111111x00 #
b0x11 $
b0x11 (
b0x11 2
b1010 4
b10011 3
1+
#200
0+
#205
b11111111x0 #
b0x1 $
b0x1 (
b0x1 2
b1010 4
b10100 3
1+
#210
0+
#215
b111111111x #
b0x $
b0x (
b0x 2
b1010 4
b10101 3
1+
#220
0+
#225
b1111111111 #
1'
b0 $
b0 (
b0 2
b0 3
1+
#230
0+
#235
b111111111x #
b0x $
b0x (
b0x 2
b1010 4
0'
b1 3
0)
1+
#240
0+
#245
b11111111x0 #
b0x1 $
b0x1 (
b0x1 2
b1010 4
b10 3
1+
#250
0+
#255
b1111111x00 #
b0x11 $
b0x11 (
b0x11 2
b1010 4
b11 3
1+
#260
0+
#265
b111111x000 #
b0x111 $
b0x111 (
b0x111 2
b1010 4
b100 3
1+
#270
0+
#275
b11111x0000 #
b0x1111 $
b0x1111 (
b0x1111 2
b1010 4
b101 3
1+
#280
0+
#285
x5
16
x7
x:
08
19
b1111x00000 #
b0x11111 $
b0x11111 (
b0x11111 2
b1010 4
b110 3
1+
#290
0+
#295
05
x6
17
0:
x8
x9
b111x000000 #
b0x111111 $
b0x111111 (
b0x111111 2
b1010 4
b111 3
1+
#300
0+
#305
06
18
19
b11x0000000 #
b0x1111111 $
b0x1111111 (
b0x1111111 2
b1010 4
b1000 3
1+
#310
0+
#315
b1x00000000 #
b0x11111111 $
b0x11111111 (
b0x11111111 2
b1010 4
b1001 3
1+
#320
0+
#325
0"
1!
1.
bx000000000 #
bx111111111 $
bx111111111 (
bx111111111 2
b1010 4
b1010 3
1+
#330
0+
#335
b0 #
b1111111111 $
b1111111111 (
b1111111111 2
b1011 3
1)
1+
#340
0+
#345
bx000000000 #
bx111111111 $
bx111111111 (
bx111111111 2
b1010 4
b1100 3
1+
#350
0+
#355
z"
z!
0.
b1x00000000 #
b0x11111111 $
b0x11111111 (
b0x11111111 2
b1010 4
b1101 3
1+
#360
0+
#365
b11x0000000 #
b0x1111111 $
b0x1111111 (
b0x1111111 2
b1010 4
b1110 3
1+
#370
0+
#375
x6
x8
x9
b111x000000 #
b0x111111 $
b0x111111 (
b0x111111 2
b1010 4
b1111 3
1+
#380
0+
#385
x5
16
x7
x:
08
09
b1111x00000 #
b0x11111 $
b0x11111 (
b0x11111 2
b1010 4
b10000 3
1+
#390
0+
#395
15
x6
07
1:
x8
x9
b11111x0000 #
b0x1111 $
b0x1111 (
b0x1111 2
b1010 4
b10001 3
1+
#400
0+
#405
b111111x000 #
b0x111 $
b0x111 (
b0x111 2
b1010 4
b10010 3
1+
#410
0+
#415
b1111111x00 #
b0x11 $
b0x11 (
b0x11 2
b1010 4
b10011 3
1+
#420
0+
#425
b11111111x0 #
b0x1 $
b0x1 (
b0x1 2
b1010 4
b10100 3
1+
#430
0+
#435
b111111111x #
b0x $
b0x (
b0x 2
b1010 4
b10101 3
1+
#440
0+
#445
b1111111111 #
1'
b0 $
b0 (
b0 2
b0 3
1+
#450
0+
#455
b111111111x #
b0x $
b0x (
b0x 2
b1010 4
0'
b1 3
0)
1+
#460
0+
#465
b11111111x0 #
b0x1 $
b0x1 (
b0x1 2
b1010 4
b10 3
1+
#470
0+
#475
b1111111x00 #
b0x11 $
b0x11 (
b0x11 2
b1010 4
b11 3
1+
#480
0+
#485
b111111x000 #
b0x111 $
b0x111 (
b0x111 2
b1010 4
b100 3
1+
#490
0+
#495
b11111x0000 #
b0x1111 $
b0x1111 (
b0x1111 2
b1010 4
b101 3
1+
#500
0+
#505
x5
16
x7
x:
08
19
b1111x00000 #
b0x11111 $
b0x11111 (
b0x11111 2
b1010 4
b110 3
1+
#510
0+
#515
05
x6
17
0:
x8
x9
b111x000000 #
b0x111111 $
b0x111111 (
b0x111111 2
b1010 4
b111 3
1+
#520
0+
#525
06
18
19
b11x0000000 #
b0x1111111 $
b0x1111111 (
b0x1111111 2
b1010 4
b1000 3
1+
#530
0+
#535
b1x00000000 #
b0x11111111 $
b0x11111111 (
b0x11111111 2
b1010 4
b1001 3
1+
#540
0+
#545
bx000000000 #
bx111111111 $
bx111111111 (
bx111111111 2
b1010 4
b1010 3
1+
#550
0+
#555
b0 #
b1111111111 $
b1111111111 (
b1111111111 2
b1011 3
1)
1+
#560
0+
#565
bx000000000 #
bx111111111 $
bx111111111 (
bx111111111 2
b1010 4
b1100 3
1+
#570
0+
#575
b1x00000000 #
b0x11111111 $
b0x11111111 (
b0x11111111 2
b1010 4
b1101 3
1+
#580
0+
#585
b11x0000000 #
b0x1111111 $
b0x1111111 (
b0x1111111 2
b1010 4
b1110 3
1+
#590
0+
#595
x6
x8
x9
b111x000000 #
b0x111111 $
b0x111111 (
b0x111111 2
b1010 4
b1111 3
1+
#600
0+
#605
x5
16
x7
x:
08
09
b1111x00000 #
b0x11111 $
b0x11111 (
b0x11111 2
b1010 4
b10000 3
1+
#610
0+
#615
15
x6
07
1:
x8
x9
b11111x0000 #
b0x1111 $
b0x1111 (
b0x1111 2
b1010 4
b10001 3
1+
#620
0+
#625
b111111x000 #
b0x111 $
b0x111 (
b0x111 2
b1010 4
b10010 3
1+
#630
0+
#635
b1111111x00 #
b0x11 $
b0x11 (
b0x11 2
b1010 4
b10011 3
1+
#640
0+
#645
b11111111x0 #
b0x1 $
b0x1 (
b0x1 2
b1010 4
b10100 3
1+
#650
0+
#655
b111111111x #
b0x $
b0x (
b0x 2
b1010 4
b10101 3
1+
#660
0+
#665
b1111111111 #
1'
b0 $
b0 (
b0 2
b0 3
1+
#670
0+
#675
b111111111x #
b0x $
b0x (
b0x 2
b1010 4
0'
b1 3
0)
1+
#680
0+
#685
b11111111x0 #
b0x1 $
b0x1 (
b0x1 2
b1010 4
b10 3
1+
#690
0+
#695
b1111111x00 #
b0x11 $
b0x11 (
b0x11 2
b1010 4
b11 3
1+
#700
0+
#705
b111111x000 #
b0x111 $
b0x111 (
b0x111 2
b1010 4
b100 3
1+
#710
0+
#715
b11111x0000 #
b0x1111 $
b0x1111 (
b0x1111 2
b1010 4
b101 3
1+
#720
0+
#725
x5
16
x7
x:
08
19
b1111x00000 #
b0x11111 $
b0x11111 (
b0x11111 2
b1010 4
b110 3
1+
#730
0+
#735
05
x6
17
0:
x8
x9
b111x000000 #
b0x111111 $
b0x111111 (
b0x111111 2
b1010 4
b111 3
1+
#740
0+
#745
06
18
19
b11x0000000 #
b0x1111111 $
b0x1111111 (
b0x1111111 2
b1010 4
b1000 3
1+
#750
0+
#755
b1x00000000 #
b0x11111111 $
b0x11111111 (
b0x11111111 2
b1010 4
b1001 3
1+
