tb/sram_2port_bank/sram.vcd
$date
	Wed Oct 01 18:36:58 2025
$end
$version
	Icarus Verilog
$end
$timescale
	1ns
$end
$scope module sram_tb $end
$var wire 1 ! bitA $end
$var wire 1 " bitnotA $end
$var wire 1 # bitnotB $end
$var wire 5 $ clkneg [4:0] $end
$var wire 1 % srclkneg $end
$var wire 1 & srclkpos $end
$var wire 1 ' vdd $end
$var wire 1 ( vss $end
$var wire 1 ) instFlag $end
$var wire 5 * clkpos [4:0] $end
$var wire 1 + bitB $end
$var wire 1 , Mclk $end
$var parameter 32 - WIDTH $end
$var reg 1 . PEn $end
$var reg 1 / PEnnot $end
$var reg 1 0 bitA_in $end
$var reg 1 1 bitB_in $end
$var reg 1 2 clk $end
$var reg 1 3 reset $end
$var reg 1 4 wordA $end
$var reg 1 5 wordB $end
$scope module bennett $end
$var wire 1 2 clk $end
$var wire 1 3 reset $end
$var parameter 65 6 MAX_STATE $end
$var parameter 32 7 PHASES $end
$var parameter 32 8 STATE_WIDTH $end
$var reg 1 , Mclk $end
$var reg 5 9 clkp [4:0] $end
$var reg 1 ) instFlag $end
$var reg 4 : state [3:0] $end
$scope begin $unm_blk_7 $end
$var integer 32 ; i [31:0] $end
$upscope $end
$upscope $end
$scope module dut $end
$var wire 1 . PEn $end
$var wire 1 / PEnnot $end
$var wire 1 ! bitA $end
$var wire 1 " bitnotA $end
$var wire 1 # bitnotB $end
$var wire 1 < net2 $end
$var wire 1 = net3 $end
$var wire 1 > net4 $end
$var wire 1 ? net5 $end
$var wire 1 % srclkneg $end
$var wire 1 & srclkpos $end
$var wire 1 ' vdd $end
$var wire 1 ( vss $end
$var wire 1 4 wordA $end
$var wire 1 5 wordB $end
$var parameter 96 @ CDS_CELLNAME $end
$var parameter 48 A CDS_LIBNAME $end
$var parameter 72 B CDS_VIEWNAME $end
$scope module MN18 $end
$var wire 1 ( b $end
$var wire 1 > d $end
$var wire 1 . g $end
$var wire 1 % s $end
$var wire 1 C vdd $end
$var wire 1 D vss $end
$upscope $end
$scope module MN19 $end
$var wire 1 ( b $end
$var wire 1 ( d $end
$var wire 1 / g $end
$var wire 1 > s $end
$var wire 1 E vdd $end
$var wire 1 F vss $end
$upscope $end
$scope module MN20 $end
$var wire 1 ( b $end
$var wire 1 > d $end
$var wire 1 < g $end
$var wire 1 ? s $end
$var wire 1 G vdd $end
$var wire 1 H vss $end
$upscope $end
$scope module MN21 $end
$var wire 1 ( b $end
$var wire 1 " d $end
$var wire 1 4 g $end
$var wire 1 < s $end
$var wire 1 I vdd $end
$var wire 1 J vss $end
$upscope $end
$scope module MN22 $end
$var wire 1 ( b $end
$var wire 1 ? d $end
$var wire 1 4 g $end
$var wire 1 ! s $end
$var wire 1 K vdd $end
$var wire 1 L vss $end
$upscope $end
$scope module MN23 $end
$var wire 1 ( b $end
$var wire 1 < d $end
$var wire 1 ? g $end
$var wire 1 > s $end
$var wire 1 M vdd $end
$var wire 1 N vss $end
$upscope $end
$scope module MN49 $end
$var wire 1 ( b $end
$var wire 1 # d $end
$var wire 1 5 g $end
$var wire 1 < s $end
$var wire 1 O vdd $end
$var wire 1 P vss $end
$upscope $end
$scope module MP14 $end
$var wire 1 ' b $end
$var wire 1 = d $end
$var wire 1 . g $end
$var wire 1 ' s $end
$var wire 1 Q vdd $end
$var wire 1 R vss $end
$upscope $end
$scope module MP15 $end
$var wire 1 ' b $end
$var wire 1 & d $end
$var wire 1 / g $end
$var wire 1 = s $end
$var wire 1 S vdd $end
$var wire 1 T vss $end
$upscope $end
$scope module MP16 $end
$var wire 1 ' b $end
$var wire 1 = d $end
$var wire 1 ? g $end
$var wire 1 < s $end
$var wire 1 U vdd $end
$var wire 1 V vss $end
$upscope $end
$scope module MP17 $end
$var wire 1 ' b $end
$var wire 1 ? d $end
$var wire 1 < g $end
$var wire 1 = s $end
$var wire 1 W vdd $end
$var wire 1 X vss $end
$upscope $end
$upscope $end
$upscope $end
$enddefinitions $end
$comment Show the parameter values. $end
$dumpall
b11100110110001101101000011001010110110101100001011101000110100101100011 B
b10011010100100101010000010100110011001000110101 A
b11100110111001001100001011011010011000101100010010111110011001001110000011011110111001001110100 @
b100 8
b101 7
b1011 6
b101 -
$end
#0
$dumpvars
0X
1W
0V
1U
0T
1S
0R
1Q
0P
1O
0N
1M
0L
1K
0J
1I
0H
1G
0F
1E
0D
1C
x?
x>
x=
x<
bx ;
b0 :
b0 9
x5
x4
13
02
x1
x0
x/
x.
x,
x+
b0 *
1)
0(
1'
x&
x%
b11111 $
x#
x"
x!
$end
#5
0,
12
#10
0+
0%
z!
z#
1&
02
05
04
1/
0.
01
00
03
#15
1%
b1111x $
0&
b0x *
b0x 9
b101 ;
0)
b1 :
12
#20
02
#25
b111x0 $
b0x1 *
b0x1 9
b101 ;
b10 :
12
#30
02
#35
b11x00 $
b0x11 *
b0x11 9
b101 ;
b11 :
12
#40
02
#45
b1x000 $
b0x111 *
b0x111 9
b101 ;
b100 :
12
#50
02
#55
bx0000 $
bx1111 *
bx1111 9
b101 ;
b101 :
12
#60
02
#65
b0 $
b11111 *
b11111 9
b110 :
1,
12
#70
02
#75
bx0000 $
bx1111 *
bx1111 9
b101 ;
b111 :
12
#80
02
#85
b1x000 $
b0x111 *
b0x111 9
b101 ;
b1000 :
12
#90
02
#95
b11x00 $
b0x11 *
b0x11 9
b101 ;
b1001 :
12
#100
02
#105
b111x0 $
b0x1 *
b0x1 9
b101 ;
b1010 :
12
#110
02
#115
b1111x $
b0x *
b0x 9
b101 ;
b1011 :
12
#120
02
#125
0%
1&
b11111 $
1)
b0 *
b0 9
b0 :
12
#130
02
#135
1%
b1111x $
0&
b0x *
b0x 9
b101 ;
0)
b1 :
0,
12
#140
02
#145
b111x0 $
b0x1 *
b0x1 9
b101 ;
b10 :
12
#150
02
#155
b11x00 $
b0x11 *
b0x11 9
b101 ;
b11 :
12
#160
02
#165
b1x000 $
b0x111 *
b0x111 9
b101 ;
b100 :
12
#170
02
#175
bx0000 $
bx1111 *
bx1111 9
b101 ;
b101 :
12
#180
02
#185
b0 $
b11111 *
b11111 9
b110 :
1,
12
#190
02
#195
bx0000 $
bx1111 *
bx1111 9
b101 ;
b111 :
12
#200
02
#205
b1x000 $
b0x111 *
b0x111 9
b101 ;
b1000 :
12
#210
02
#215
b11x00 $
b0x11 *
b0x11 9
b101 ;
b1001 :
12
#220
02
#225
b111x0 $
b0x1 *
b0x1 9
b101 ;
b1010 :
12
#230
02
#235
b1111x $
b0x *
b0x 9
b101 ;
b1011 :
12
#240
02
#245
0%
1&
b11111 $
1)
b0 *
b0 9
b0 :
12
#250
02
#255
1%
b1111x $
0&
b0x *
b0x 9
b101 ;
0)
b1 :
0,
12
#260
02
#265
b111x0 $
b0x1 *
b0x1 9
b101 ;
b10 :
12
#270
02
#275
b11x00 $
b0x11 *
b0x11 9
b101 ;
b11 :
12
#280
02
#285
b1x000 $
b0x111 *
b0x111 9
b101 ;
b100 :
12
#290
02
#295
bx0000 $
bx1111 *
bx1111 9
b101 ;
b101 :
12
#300
02
#305
b0 $
b11111 *
b11111 9
b110 :
1,
12
#310
02
#315
bx0000 $
bx1111 *
bx1111 9
b101 ;
b111 :
12
#320
02
#325
b1x000 $
b0x111 *
b0x111 9
b101 ;
b1000 :
12
#330
02
#335
b11x00 $
b0x11 *
b0x11 9
b101 ;
b1001 :
12
#340
02
#345
b111x0 $
b0x1 *
b0x1 9
b101 ;
b1010 :
12
#350
02
#355
b1111x $
b0x *
b0x 9
b101 ;
b1011 :
12
#360
02
#365
0%
1&
b11111 $
1)
b0 *
b0 9
b0 :
12
#370
02
#375
1%
b1111x $
0&
b0x *
b0x 9
b101 ;
0)
b1 :
0,
12
#380
02
#385
b111x0 $
b0x1 *
b0x1 9
b101 ;
b10 :
12
#390
02
#395
b11x00 $
b0x11 *
b0x11 9
b101 ;
b11 :
12
#400
02
#405
b1x000 $
b0x111 *
b0x111 9
b101 ;
b100 :
12
#410
02
#415
bx0000 $
bx1111 *
bx1111 9
b101 ;
b101 :
12
#420
02
#425
b0 $
b11111 *
b11111 9
b110 :
1,
12
#430
02
#435
bx0000 $
bx1111 *
bx1111 9
b101 ;
b111 :
12
#440
02
#445
b1x000 $
b0x111 *
b0x111 9
b101 ;
b1000 :
12
#450
02
#455
b11x00 $
b0x11 *
b0x11 9
b101 ;
b1001 :
12
#460
02
#465
b111x0 $
b0x1 *
b0x1 9
b101 ;
b1010 :
12
#470
02
#475
b1111x $
b0x *
b0x 9
b101 ;
b1011 :
12
#480
02
#485
0%
1&
b11111 $
1)
b0 *
b0 9
b0 :
12
#490
02
#495
1%
b1111x $
0&
b0x *
b0x 9
b101 ;
0)
b1 :
0,
12
#500
02
#505
b111x0 $
b0x1 *
b0x1 9
b101 ;
b10 :
12
#510
02
#515
b11x00 $
b0x11 *
b0x11 9
b101 ;
b11 :
12
#520
02
#525
b1x000 $
b0x111 *
b0x111 9
b101 ;
b100 :
12
#530
02
#535
bx0000 $
bx1111 *
bx1111 9
b101 ;
b101 :
12
#540
02
#545
b0 $
b11111 *
b11111 9
b110 :
1,
12
#550
02
#555
bx0000 $
bx1111 *
bx1111 9
b101 ;
b111 :
12
#560
02
#565
b1x000 $
b0x111 *
b0x111 9
b101 ;
b1000 :
12
#570
02
#575
b11x00 $
b0x11 *
b0x11 9
b101 ;
b1001 :
12
#580
02
#585
b111x0 $
b0x1 *
b0x1 9
b101 ;
b1010 :
12
#590
02
#595
b1111x $
b0x *
b0x 9
b101 ;
b1011 :
12
#600
02
#605
0%
1&
b11111 $
1)
b0 *
b0 9
b0 :
12
#610
02
#615
1%
b1111x $
0&
b0x *
b0x 9
b101 ;
0)
b1 :
0,
12
#620
02
#625
b111x0 $
b0x1 *
b0x1 9
b101 ;
b10 :
12
#630
02
#635
b11x00 $
b0x11 *
b0x11 9
b101 ;
b11 :
12
#640
02
#645
b1x000 $
b0x111 *
b0x111 9
b101 ;
b100 :
12
#650
02
#655
bx0000 $
bx1111 *
bx1111 9
b101 ;
b101 :
12
#660
02
#665
b0 $
b11111 *
b11111 9
b110 :
1,
12
#670
02
#675
bx0000 $
bx1111 *
bx1111 9
b101 ;
b111 :
12
#680
02
#685
b1x000 $
b0x111 *
b0x111 9
b101 ;
b1000 :
12
#690
02
#695
b11x00 $
b0x11 *
b0x11 9
b101 ;
b1001 :
12
#700
02
#705
b111x0 $
b0x1 *
b0x1 9
b101 ;
b1010 :
12
#710
02
#715
b1111x $
b0x *
b0x 9
b101 ;
b1011 :
12
#720
02
#725
0%
1&
b11111 $
1)
b0 *
b0 9
b0 :
12
#730
02
#735
1%
b1111x $
0&
b0x *
b0x 9
b101 ;
0)
b1 :
0,
12
#740
02
#745
b111x0 $
b0x1 *
b0x1 9
b101 ;
b10 :
12
#750
02
#755
b11x00 $
b0x11 *
b0x11 9
b101 ;
b11 :
12
#760
02
#765
b1x000 $
b0x111 *
b0x111 9
b101 ;
b100 :
12
#770
02
#775
bx0000 $
bx1111 *
bx1111 9
b101 ;
b101 :
12
#780
02
#785
b0 $
b11111 *
b11111 9
b110 :
1,
12
#790
02
#795
bx0000 $
bx1111 *
bx1111 9
b101 ;
b111 :
12
#800
02
#805
b1x000 $
b0x111 *
b0x111 9
b101 ;
b1000 :
12
#810
02
#815
b11x00 $
b0x11 *
b0x11 9
b101 ;
b1001 :
12
#820
02
#825
b111x0 $
b0x1 *
b0x1 9
b101 ;
b1010 :
12
#830
02
#835
b1111x $
b0x *
b0x 9
b101 ;
b1011 :
12
#840
02
#845
0%
1&
b11111 $
1)
b0 *
b0 9
b0 :
12
#850
02
#855
1%
b1111x $
0&
b0x *
b0x 9
b101 ;
0)
b1 :
0,
12
#860
02
#865
b111x0 $
b0x1 *
b0x1 9
b101 ;
b10 :
12
#870
02
#875
b11x00 $
b0x11 *
b0x11 9
b101 ;
b11 :
12
#880
02
#885
b1x000 $
b0x111 *
b0x111 9
b101 ;
b100 :
12
#890
02
#895
bx0000 $
bx1111 *
bx1111 9
b101 ;
b101 :
12
#900
02
#905
b0 $
b11111 *
b11111 9
b110 :
1,
12
#910
02
#915
bx0000 $
bx1111 *
bx1111 9
b101 ;
b111 :
12
#920
02
#925
b1x000 $
b0x111 *
b0x111 9
b101 ;
b1000 :
12
#930
02
#935
b11x00 $
b0x11 *
b0x11 9
b101 ;
b1001 :
12
#940
02
#945
b111x0 $
b0x1 *
b0x1 9
b101 ;
b1010 :
12
#950
02
#955
b1111x $
b0x *
b0x 9
b101 ;
b1011 :
12
#960
02
#965
0%
1&
b11111 $
1)
b0 *
b0 9
b0 :
12
#970
02
#975
1%
b1111x $
0&
b0x *
b0x 9
b101 ;
0)
b1 :
0,
12
#980
02
#985
b111x0 $
b0x1 *
b0x1 9
b101 ;
b10 :
12
#990
02
#995
b11x00 $
b0x11 *
b0x11 9
b101 ;
b11 :
12
#1000
02
#1005
b1x000 $
b0x111 *
b0x111 9
b101 ;
b100 :
12
#1010
02
#1015
bx0000 $
bx1111 *
bx1111 9
b101 ;
b101 :
12
#1020
02
#1025
b0 $
b11111 *
b11111 9
b110 :
1,
12
#1030
02
#1035
bx0000 $
bx1111 *
bx1111 9
b101 ;
b111 :
12
#1040
02
#1045
b1x000 $
b0x111 *
b0x111 9
b101 ;
b1000 :
12
#1050
02
#1055
b11x00 $
b0x11 *
b0x11 9
b101 ;
b1001 :
12
#1060
02
#1065
b111x0 $
b0x1 *
b0x1 9
b101 ;
b1010 :
12
#1070
02
#1075
b1111x $
b0x *
b0x 9
b101 ;
b1011 :
12
#1080
02
#1085
0%
1&
b11111 $
1)
b0 *
b0 9
b0 :
12
#1090
02
#1095
1%
b1111x $
0&
b0x *
b0x 9
b101 ;
0)
b1 :
0,
12
#1100
02
#1105
b111x0 $
b0x1 *
b0x1 9
b101 ;
b10 :
12
#1110
02
#1115
b11x00 $
b0x11 *
b0x11 9
b101 ;
b11 :
12
#1120
02
#1125
b1x000 $
b0x111 *
b0x111 9
b101 ;
b100 :
12
#1130
02
#1135
bx0000 $
bx1111 *
bx1111 9
b101 ;
b101 :
12
#1140
02
#1145
b0 $
b11111 *
b11111 9
b110 :
1,
12
#1150
02
#1155
bx0000 $
bx1111 *
bx1111 9
b101 ;
b111 :
12
#1160
02
#1165
b1x000 $
b0x111 *
b0x111 9
b101 ;
b1000 :
12
#1170
02
#1175
b11x00 $
b0x11 *
b0x11 9
b101 ;
b1001 :
12
#1180
02
#1185
b111x0 $
b0x1 *
b0x1 9
b101 ;
b1010 :
12
#1190
02
#1195
b1111x $
b0x *
b0x 9
b101 ;
b1011 :
12
#1200
02
#1205
0%
1&
b11111 $
1)
b0 *
b0 9
b0 :
12
#1210
02
#1215
1%
b1111x $
0&
b0x *
b0x 9
b101 ;
0)
b1 :
0,
12
#1220
02
#1225
b111x0 $
b0x1 *
b0x1 9
b101 ;
b10 :
12
#1230
02
#1235
b11x00 $
b0x11 *
b0x11 9
b101 ;
b11 :
12
#1240
02
#1245
b1x000 $
b0x111 *
b0x111 9
b101 ;
b100 :
12
#1250
02
#1255
bx0000 $
bx1111 *
bx1111 9
b101 ;
b101 :
12
#1260
02
#1265
b0 $
b11111 *
b11111 9
b110 :
1,
12
#1270
02
#1275
bx0000 $
bx1111 *
bx1111 9
b101 ;
b111 :
12
#1280
02
#1285
b1x000 $
b0x111 *
b0x111 9
b101 ;
b1000 :
12
#1290
02
#1295
b11x00 $
b0x11 *
b0x11 9
b101 ;
b1001 :
12
#1300
02
#1305
b111x0 $
b0x1 *
b0x1 9
b101 ;
b1010 :
12
#1310
02
#1315
b1111x $
b0x *
b0x 9
b101 ;
b1011 :
12
#1320
02
#1325
0%
1&
b11111 $
1)
b0 *
b0 9
b0 :
12
#1330
02
#1335
1%
b1111x $
0&
b0x *
b0x 9
b101 ;
0)
b1 :
0,
12
#1340
02
#1345
b111x0 $
b0x1 *
b0x1 9
b101 ;
b10 :
12
#1350
02
#1355
b11x00 $
b0x11 *
b0x11 9
b101 ;
b11 :
12
#1360
02
#1365
b1x000 $
b0x111 *
b0x111 9
b101 ;
b100 :
12
#1370
02
#1375
bx0000 $
bx1111 *
bx1111 9
b101 ;
b101 :
12
#1380
02
#1385
b0 $
b11111 *
b11111 9
b110 :
1,
12
#1390
02
#1395
bx0000 $
bx1111 *
bx1111 9
b101 ;
b111 :
12
#1400
02
#1405
b1x000 $
b0x111 *
b0x111 9
b101 ;
b1000 :
12
#1410
02
#1415
b11x00 $
b0x11 *
b0x11 9
b101 ;
b1001 :
12
#1420
02
#1425
b111x0 $
b0x1 *
b0x1 9
b101 ;
b1010 :
12
#1430
02
#1435
b1111x $
b0x *
b0x 9
b101 ;
b1011 :
12
#1440
02
#1445
0%
1&
b11111 $
1)
b0 *
b0 9
b0 :
12
#1450
02
#1455
1%
b1111x $
0&
b0x *
b0x 9
b101 ;
0)
b1 :
0,
12
#1460
02
#1465
b111x0 $
b0x1 *
b0x1 9
b101 ;
b10 :
12
#1470
02
#1475
b11x00 $
b0x11 *
b0x11 9
b101 ;
b11 :
12
#1480
02
#1485
b1x000 $
b0x111 *
b0x111 9
b101 ;
b100 :
12
#1490
02
#1495
bx0000 $
bx1111 *
bx1111 9
b101 ;
b101 :
12
#1500
02
#1505
b0 $
b11111 *
b11111 9
b110 :
1,
12
#1510
02
#1515
bx0000 $
bx1111 *
bx1111 9
b101 ;
b111 :
12
#1520
02
#1525
b1x000 $
b0x111 *
b0x111 9
b101 ;
b1000 :
12
#1530
02
#1535
b11x00 $
b0x11 *
b0x11 9
b101 ;
b1001 :
12
#1540
02
#1545
b111x0 $
b0x1 *
b0x1 9
b101 ;
b1010 :
12
#1550
02
#1555
b1111x $
b0x *
b0x 9
b101 ;
b1011 :
12
#1560
02
#1565
0%
1&
b11111 $
1)
b0 *
b0 9
b0 :
12
#1570
02
#1575
1%
b1111x $
0&
b0x *
b0x 9
b101 ;
0)
b1 :
0,
12
#1580
02
#1585
b111x0 $
b0x1 *
b0x1 9
b101 ;
b10 :
12
#1590
02
#1595
b11x00 $
b0x11 *
b0x11 9
b101 ;
b11 :
12
#1600
02
#1605
b1x000 $
b0x111 *
b0x111 9
b101 ;
b100 :
12
#1610
02
#1615
bx0000 $
bx1111 *
bx1111 9
b101 ;
b101 :
12
#1620
02
#1625
b0 $
b11111 *
b11111 9
b110 :
1,
12
#1630
02
#1635
bx0000 $
bx1111 *
bx1111 9
b101 ;
b111 :
12
#1640
02
#1645
b1x000 $
b0x111 *
b0x111 9
b101 ;
b1000 :
12
#1650
02
#1655
b11x00 $
b0x11 *
b0x11 9
b101 ;
b1001 :
12
#1660
02
#1665
b111x0 $
b0x1 *
b0x1 9
b101 ;
b1010 :
12
#1670
02
#1675
b1111x $
b0x *
b0x 9
b101 ;
b1011 :
12
#1680
02
#1685
0%
1&
b11111 $
1)
b0 *
b0 9
b0 :
12
#1690
02
#1695
1%
b1111x $
0&
b0x *
b0x 9
b101 ;
0)
b1 :
0,
12
#1700
02
#1705
b111x0 $
b0x1 *
b0x1 9
b101 ;
b10 :
12
#1710
02
#1715
b11x00 $
b0x11 *
b0x11 9
b101 ;
b11 :
12
#1720
02
#1725
b1x000 $
b0x111 *
b0x111 9
b101 ;
b100 :
12
#1730
02
#1735
bx0000 $
bx1111 *
bx1111 9
b101 ;
b101 :
12
#1740
02
#1745
b0 $
b11111 *
b11111 9
b110 :
1,
12
#1750
02
#1755
bx0000 $
bx1111 *
bx1111 9
b101 ;
b111 :
12
#1760
02
#1765
b1x000 $
b0x111 *
b0x111 9
b101 ;
b1000 :
12
#1770
02
#1775
b11x00 $
b0x11 *
b0x11 9
b101 ;
b1001 :
12
#1780
02
#1785
b111x0 $
b0x1 *
b0x1 9
b101 ;
b1010 :
12
#1790
02
#1795
b1111x $
b0x *
b0x 9
b101 ;
b1011 :
12
#1800
02
#1805
0%
1&
b11111 $
1)
b0 *
b0 9
b0 :
12
#1810
02
#1815
1%
b1111x $
0&
b0x *
b0x 9
b101 ;
0)
b1 :
0,
12
#1820
02
#1825
b111x0 $
b0x1 *
b0x1 9
b101 ;
b10 :
12
#1830
02
#1835
b11x00 $
b0x11 *
b0x11 9
b101 ;
b11 :
12
#1840
02
#1845
b1x000 $
b0x111 *
b0x111 9
b101 ;
b100 :
12
#1850
02
#1855
bx0000 $
bx1111 *
bx1111 9
b101 ;
b101 :
12
#1860
02
#1865
b0 $
b11111 *
b11111 9
b110 :
1,
12
#1870
02
#1875
bx0000 $
bx1111 *
bx1111 9
b101 ;
b111 :
12
#1880
02
#1885
b1x000 $
b0x111 *
b0x111 9
b101 ;
b1000 :
12
#1890
02
#1895
b11x00 $
b0x11 *
b0x11 9
b101 ;
b1001 :
12
#1900
02
#1905
b111x0 $
b0x1 *
b0x1 9
b101 ;
b1010 :
12
#1910
02
#1915
b1111x $
b0x *
b0x 9
b101 ;
b1011 :
12
#1920
02
#1925
0%
1&
b11111 $
1)
b0 *
b0 9
b0 :
12
#1930
02
#1935
1%
b1111x $
0&
b0x *
b0x 9
b101 ;
0)
b1 :
0,
12
#1940
02
#1945
b111x0 $
b0x1 *
b0x1 9
b101 ;
b10 :
12
#1950
02
#1955
b11x00 $
b0x11 *
b0x11 9
b101 ;
b11 :
12
#1960
02
#1965
b1x000 $
b0x111 *
b0x111 9
b101 ;
b100 :
12
#1970
02
#1975
bx0000 $
bx1111 *
bx1111 9
b101 ;
b101 :
12
#1980
02
#1985
b0 $
b11111 *
b11111 9
b110 :
1,
12
#1990
02
#1995
bx0000 $
bx1111 *
bx1111 9
b101 ;
b111 :
12
#2000
02
#2005
b1x000 $
b0x111 *
b0x111 9
b101 ;
b1000 :
12
#2010
02
#2015
b11x00 $
b0x11 *
b0x11 9
b101 ;
b1001 :
12
#2020
02
#2025
b111x0 $
b0x1 *
b0x1 9
b101 ;
b1010 :
12
#2030
02
#2035
b1111x $
b0x *
b0x 9
b101 ;
b1011 :
12
#2040
02
#2045
0%
1&
b11111 $
1)
b0 *
b0 9
b0 :
12
#2050
02
#2055
1%
b1111x $
0&
b0x *
b0x 9
b101 ;
0)
b1 :
0,
12
#2060
02
#2065
b111x0 $
b0x1 *
b0x1 9
b101 ;
b10 :
12
#2070
02
#2075
b11x00 $
b0x11 *
b0x11 9
b101 ;
b11 :
12
#2080
02
#2085
b1x000 $
b0x111 *
b0x111 9
b101 ;
b100 :
12
#2090
02
#2095
bx0000 $
bx1111 *
bx1111 9
b101 ;
b101 :
12
#2100
02
#2105
b0 $
b11111 *
b11111 9
b110 :
1,
12
#2110
02
#2115
bx0000 $
bx1111 *
bx1111 9
b101 ;
b111 :
12
#2120
02
#2125
b1x000 $
b0x111 *
b0x111 9
b101 ;
b1000 :
12
#2130
02
#2135
b11x00 $
b0x11 *
b0x11 9
b101 ;
b1001 :
12
#2140
02
#2145
b111x0 $
b0x1 *
b0x1 9
b101 ;
b1010 :
12
#2150
02
#2155
b1111x $
b0x *
b0x 9
b101 ;
b1011 :
12
#2160
02
#2165
0%
1&
b11111 $
1)
b0 *
b0 9
b0 :
12
#2170
02
#2175
1%
b1111x $
0&
b0x *
b0x 9
b101 ;
0)
b1 :
0,
12
#2180
02
#2185
b111x0 $
b0x1 *
b0x1 9
b101 ;
b10 :
12
#2190
02
#2195
b11x00 $
b0x11 *
b0x11 9
b101 ;
b11 :
12
#2200
02
#2205
b1x000 $
b0x111 *
b0x111 9
b101 ;
b100 :
12
#2210
02
#2215
bx0000 $
bx1111 *
bx1111 9
b101 ;
b101 :
12
#2220
02
#2225
b0 $
b11111 *
b11111 9
b110 :
1,
12
#2230
02
#2235
bx0000 $
bx1111 *
bx1111 9
b101 ;
b111 :
12
#2240
02
#2245
b1x000 $
b0x111 *
b0x111 9
b101 ;
b1000 :
12
#2250
02
#2255
b11x00 $
b0x11 *
b0x11 9
b101 ;
b1001 :
12
#2260
02
#2265
b111x0 $
b0x1 *
b0x1 9
b101 ;
b1010 :
12
#2270
02
#2275
b1111x $
b0x *
b0x 9
b101 ;
b1011 :
12
#2280
02
#2285
0%
1&
b11111 $
1)
b0 *
b0 9
b0 :
12
#2290
02
#2295
1%
b1111x $
0&
b0x *
b0x 9
b101 ;
0)
b1 :
0,
12
#2300
02
#2305
b111x0 $
b0x1 *
b0x1 9
b101 ;
b10 :
12
#2310
02
#2315
b11x00 $
b0x11 *
b0x11 9
b101 ;
b11 :
12
#2320
02
#2325
b1x000 $
b0x111 *
b0x111 9
b101 ;
b100 :
12
#2330
02
#2335
bx0000 $
bx1111 *
bx1111 9
b101 ;
b101 :
12
#2340
02
#2345
b0 $
b11111 *
b11111 9
b110 :
1,
12
#2350
02
#2355
bx0000 $
bx1111 *
bx1111 9
b101 ;
b111 :
12
#2360
02
#2365
b1x000 $
b0x111 *
b0x111 9
b101 ;
b1000 :
12
#2370
02
#2375
b11x00 $
b0x11 *
b0x11 9
b101 ;
b1001 :
12
#2380
02
#2385
b111x0 $
b0x1 *
b0x1 9
b101 ;
b1010 :
12
#2390
02
#2395
b1111x $
b0x *
b0x 9
b101 ;
b1011 :
12
#2400
02
#2405
0%
1&
b11111 $
1)
b0 *
b0 9
b0 :
12
#2410
02
#2415
1%
b1111x $
0&
b0x *
b0x 9
b101 ;
0)
b1 :
0,
12
#2420
02
#2425
b111x0 $
b0x1 *
b0x1 9
b101 ;
b10 :
12
#2430
02
#2435
b11x00 $
b0x11 *
b0x11 9
b101 ;
b11 :
12
#2440
02
#2445
b1x000 $
b0x111 *
b0x111 9
b101 ;
b100 :
12
#2450
02
#2455
bx0000 $
bx1111 *
bx1111 9
b101 ;
b101 :
12
#2460
02
#2465
b0 $
b11111 *
b11111 9
b110 :
1,
12
#2470
02
#2475
bx0000 $
bx1111 *
bx1111 9
b101 ;
b111 :
12
#2480
02
#2485
b1x000 $
b0x111 *
b0x111 9
b101 ;
b1000 :
12
#2490
02
#2495
b11x00 $
b0x11 *
b0x11 9
b101 ;
b1001 :
12
#2500
02
#2505
b111x0 $
b0x1 *
b0x1 9
b101 ;
b1010 :
12
#2510
02
#2515
b1111x $
b0x *
b0x 9
b101 ;
b1011 :
12
#2520
02
#2525
0%
1&
b11111 $
1)
b0 *
b0 9
b0 :
12
#2530
02
#2535
1%
b1111x $
0&
b0x *
b0x 9
b101 ;
0)
b1 :
0,
12
#2540
02
#2545
b111x0 $
b0x1 *
b0x1 9
b101 ;
b10 :
12
#2550
02
#2555
b11x00 $
b0x11 *
b0x11 9
b101 ;
b11 :
12
#2560
02
#2565
b1x000 $
b0x111 *
b0x111 9
b101 ;
b100 :
12
#2570
02
#2575
bx0000 $
bx1111 *
bx1111 9
b101 ;
b101 :
12
#2580
02
#2585
b0 $
b11111 *
b11111 9
b110 :
1,
12
#2590
02
#2595
bx0000 $
bx1111 *
bx1111 9
b101 ;
b111 :
12
#2600
02
#2605
b1x000 $
b0x111 *
b0x111 9
b101 ;
b1000 :
12
#2610
02
#2615
b11x00 $
b0x11 *
b0x11 9
b101 ;
b1001 :
12
#2620
02
#2625
b111x0 $
b0x1 *
b0x1 9
b101 ;
b1010 :
12
#2630
02
#2635
b1111x $
b0x *
b0x 9
b101 ;
b1011 :
12
#2640
02
#2645
0%
1&
b11111 $
1)
b0 *
b0 9
b0 :
12
#2650
02
#2655
1%
b1111x $
0&
b0x *
b0x 9
b101 ;
0)
b1 :
0,
12
#2660
02
#2665
b111x0 $
b0x1 *
b0x1 9
b101 ;
b10 :
12
#2670
02
#2675
b11x00 $
b0x11 *
b0x11 9
b101 ;
b11 :
12
#2680
02
#2685
b1x000 $
b0x111 *
b0x111 9
b101 ;
b100 :
12
#2690
02
#2695
bx0000 $
bx1111 *
bx1111 9
b101 ;
b101 :
12
#2700
02
#2705
b0 $
b11111 *
b11111 9
b110 :
1,
12
#2710
02
#2715
bx0000 $
bx1111 *
bx1111 9
b101 ;
b111 :
12
#2720
02
#2725
b1x000 $
b0x111 *
b0x111 9
b101 ;
b1000 :
12
#2730
02
#2735
b11x00 $
b0x11 *
b0x11 9
b101 ;
b1001 :
12
#2740
02
#2745
b111x0 $
b0x1 *
b0x1 9
b101 ;
b1010 :
12
#2750
02
#2755
b1111x $
b0x *
b0x 9
b101 ;
b1011 :
12
#2760
02
#2765
0%
1&
b11111 $
1)
b0 *
b0 9
b0 :
12
#2770
02
#2775
1%
b1111x $
0&
b0x *
b0x 9
b101 ;
0)
b1 :
0,
12
#2780
02
#2785
b111x0 $
b0x1 *
b0x1 9
b101 ;
b10 :
12
#2790
02
#2795
b11x00 $
b0x11 *
b0x11 9
b101 ;
b11 :
12
#2800
02
#2805
b1x000 $
b0x111 *
b0x111 9
b101 ;
b100 :
12
#2810
02
#2815
bx0000 $
bx1111 *
bx1111 9
b101 ;
b101 :
12
#2820
02
#2825
b0 $
b11111 *
b11111 9
b110 :
1,
12
#2830
02
#2835
bx0000 $
bx1111 *
bx1111 9
b101 ;
b111 :
12
#2840
02
#2845
b1x000 $
b0x111 *
b0x111 9
b101 ;
b1000 :
12
#2850
02
#2855
b11x00 $
b0x11 *
b0x11 9
b101 ;
b1001 :
12
#2860
02
#2865
b111x0 $
b0x1 *
b0x1 9
b101 ;
b1010 :
12
#2870
02
#2875
b1111x $
b0x *
b0x 9
b101 ;
b1011 :
12
#2880
02
#2885
0%
1&
b11111 $
1)
b0 *
b0 9
b0 :
12
#2890
02
#2895
1%
b1111x $
0&
b0x *
b0x 9
b101 ;
0)
b1 :
0,
12
#2900
02
#2905
b111x0 $
b0x1 *
b0x1 9
b101 ;
b10 :
12
#2910
02
#2915
b11x00 $
b0x11 *
b0x11 9
b101 ;
b11 :
12
#2920
02
#2925
b1x000 $
b0x111 *
b0x111 9
b101 ;
b100 :
12
#2930
02
