tb/sram_2port_bank/sram.vcd
$date
	Fri Oct 03 16:46:48 2025
$end
$version
	Icarus Verilog
$end
$timescale
	1ns
$end
$scope module sram_tb $end
$var wire 1 ! bitA $end
$var wire 1 " bitnotA $end
$var wire 1 # bitnotB $end
$var wire 10 $ clkneg [9:0] $end
$var wire 1 % vdd $end
$var wire 1 & vss $end
$var wire 1 ' instFlag $end
$var wire 10 ( clkpos [9:0] $end
$var wire 1 ) Mclk $end
$var parameter 32 * WIDTH $end
$var reg 1 + PEn $end
$var reg 1 , PEnnot $end
$var reg 1 - bitA_in $end
$var reg 1 . bitB_in $end
$var reg 1 / clk $end
$var reg 1 0 reset $end
$var reg 1 1 srclkneg $end
$var reg 1 2 srclkpos $end
$var reg 1 3 wordA $end
$var reg 1 4 wordB $end
$scope module bennett $end
$var wire 1 / clk $end
$var wire 1 0 reset $end
$var parameter 65 5 MAX_STATE $end
$var parameter 32 6 PHASES $end
$var parameter 32 7 STATE_WIDTH $end
$var reg 1 ) Mclk $end
$var reg 10 8 clkp [9:0] $end
$var reg 1 ' instFlag $end
$var reg 5 9 state [4:0] $end
$scope begin $unm_blk_7 $end
$var integer 32 : i [31:0] $end
$upscope $end
$upscope $end
$scope module dut $end
$var wire 1 + PEn $end
$var wire 1 , PEnnot $end
$var wire 1 ! bitA $end
$var wire 1 " bitnotA $end
$var wire 1 # bitnotB $end
$var wire 1 ; net2 $end
$var wire 1 < net3 $end
$var wire 1 = net4 $end
$var wire 1 > net5 $end
$var wire 1 ? srclkneg $end
$var wire 1 @ srclkpos $end
$var wire 1 % vdd $end
$var wire 1 & vss $end
$var wire 1 3 wordA $end
$var wire 1 4 wordB $end
$var parameter 96 A CDS_CELLNAME $end
$var parameter 48 B CDS_LIBNAME $end
$var parameter 72 C CDS_VIEWNAME $end
$scope module MN18 $end
$var wire 1 & b $end
$var wire 1 = d $end
$var wire 1 + g $end
$var wire 1 ? s $end
$var wire 1 D vdd $end
$var wire 1 E vss $end
$upscope $end
$scope module MN19 $end
$var wire 1 & b $end
$var wire 1 & d $end
$var wire 1 , g $end
$var wire 1 = s $end
$var wire 1 F vdd $end
$var wire 1 G vss $end
$upscope $end
$scope module MN20 $end
$var wire 1 & b $end
$var wire 1 = d $end
$var wire 1 ; g $end
$var wire 1 > s $end
$var wire 1 H vdd $end
$var wire 1 I vss $end
$upscope $end
$scope module MN21 $end
$var wire 1 & b $end
$var wire 1 " d $end
$var wire 1 3 g $end
$var wire 1 ; s $end
$var wire 1 J vdd $end
$var wire 1 K vss $end
$upscope $end
$scope module MN22 $end
$var wire 1 & b $end
$var wire 1 > d $end
$var wire 1 3 g $end
$var wire 1 ! s $end
$var wire 1 L vdd $end
$var wire 1 M vss $end
$upscope $end
$scope module MN23 $end
$var wire 1 & b $end
$var wire 1 ; d $end
$var wire 1 > g $end
$var wire 1 = s $end
$var wire 1 N vdd $end
$var wire 1 O vss $end
$upscope $end
$scope module MN49 $end
$var wire 1 & b $end
$var wire 1 # d $end
$var wire 1 4 g $end
$var wire 1 ; s $end
$var wire 1 P vdd $end
$var wire 1 Q vss $end
$upscope $end
$scope module MP14 $end
$var wire 1 % b $end
$var wire 1 < d $end
$var wire 1 + g $end
$var wire 1 % s $end
$var wire 1 R vdd $end
$var wire 1 S vss $end
$upscope $end
$scope module MP15 $end
$var wire 1 % b $end
$var wire 1 @ d $end
$var wire 1 , g $end
$var wire 1 < s $end
$var wire 1 T vdd $end
$var wire 1 U vss $end
$upscope $end
$scope module MP16 $end
$var wire 1 % b $end
$var wire 1 < d $end
$var wire 1 > g $end
$var wire 1 ; s $end
$var wire 1 V vdd $end
$var wire 1 W vss $end
$upscope $end
$scope module MP17 $end
$var wire 1 % b $end
$var wire 1 > d $end
$var wire 1 ; g $end
$var wire 1 < s $end
$var wire 1 X vdd $end
$var wire 1 Y vss $end
$upscope $end
$upscope $end
$upscope $end
$enddefinitions $end
$comment Show the parameter values. $end
$dumpall
b11100110110001101101000011001010110110101100001011101000110100101100011 C
b10011010100100101010000010100110011001000110101 B
b11100110111001001100001011011010011000101100010010111110011001001110000011011110111001001110100 A
b101 7
b1010 6
b10101 5
b1010 *
$end
#0
$dumpvars
0Y
1X
0W
1V
0U
1T
0S
1R
0Q
1P
0O
1N
0M
1L
0K
1J
0I
1H
0G
1F
0E
1D
x@
x?
x>
x=
x<
x;
bx :
b0 9
b0 8
x4
x3
x2
x1
10
0/
x.
x-
x,
x+
x)
b0 (
1'
0&
1%
b1111111111 $
x#
x"
x!
$end
#5
0)
1/
#10
0#
z!
1@
1,
0/
04
03
0+
0.
0-
12
00
#15
b111111111x $
b0x (
b0x 8
b1010 :
0'
b1 9
1/
#20
0/
#25
b11111111x0 $
b0x1 (
b0x1 8
b1010 :
b10 9
1/
#30
0/
#35
b1111111x00 $
b0x11 (
b0x11 8
b1010 :
b11 9
1/
#40
0/
#45
b111111x000 $
b0x111 (
b0x111 8
b1010 :
b100 9
1/
#50
0/
#55
b11111x0000 $
b0x1111 (
b0x1111 8
b1010 :
b101 9
1/
#60
0/
#65
b1111x00000 $
b0x11111 (
b0x11111 8
b1010 :
b110 9
1/
#70
0/
#75
1?
0@
11
02
b111x000000 $
b0x111111 (
b0x111111 8
b1010 :
b111 9
1/
#80
0/
#85
b11x0000000 $
b0x1111111 (
b0x1111111 8
b1010 :
b1000 9
1/
#90
0/
#95
b1x00000000 $
b0x11111111 (
b0x11111111 8
b1010 :
x!
x#
b1001 9
14
13
1/
#100
0/
#105
bx000000000 $
bx111111111 (
bx111111111 8
b1010 :
b1010 9
1/
#110
0/
#115
0?
1@
01
12
b0 $
b1111111111 (
b1111111111 8
b1011 9
1)
1/
#120
0/
#125
bx000000000 $
bx111111111 (
bx111111111 8
b1010 :
b1100 9
1/
#130
0/
#135
b1x00000000 $
b0x11111111 (
b0x11111111 8
b1010 :
z!
0#
b1101 9
04
03
1/
#140
0/
#145
b11x0000000 $
b0x1111111 (
b0x1111111 8
b1010 :
b1110 9
1/
#150
0/
#155
b111x000000 $
b0x111111 (
b0x111111 8
b1010 :
b1111 9
1/
#160
0/
#165
b1111x00000 $
b0x11111 (
b0x11111 8
b1010 :
b10000 9
1/
#170
0/
#175
b11111x0000 $
b0x1111 (
b0x1111 8
b1010 :
b10001 9
1/
#180
0/
#185
b111111x000 $
b0x111 (
b0x111 8
b1010 :
b10010 9
1/
#190
0/
#195
b1111111x00 $
b0x11 (
b0x11 8
b1010 :
b10011 9
1/
#200
0/
#205
b11111111x0 $
b0x1 (
b0x1 8
b1010 :
b10100 9
1/
#210
0/
#215
b111111111x $
b0x (
b0x 8
b1010 :
b10101 9
1/
#220
0/
#225
0"
x?
1!
z#
x@
0,
x=
x;
x>
x<
1-
1+
b1111111111 $
1'
b0 (
b0 8
b0 9
1/
#230
0/
#235
b111111111x $
b0x (
b0x 8
b1010 :
0'
b1 9
0)
1/
#240
0/
#245
b11111111x0 $
b0x1 (
b0x1 8
b1010 :
b10 9
1/
#250
0/
#255
b1111111x00 $
b0x11 (
b0x11 8
b1010 :
b11 9
1/
#260
0/
#265
b111111x000 $
b0x111 (
b0x111 8
b1010 :
b100 9
1/
#270
0/
#275
b11111x0000 $
b0x1111 (
b0x1111 8
b1010 :
b101 9
1/
#280
0/
#285
b1111x00000 $
b0x11111 (
b0x11111 8
b1010 :
b110 9
1/
#290
0/
#295
11
02
b111x000000 $
b0x111111 (
b0x111111 8
b1010 :
b111 9
1/
#300
0/
#305
b11x0000000 $
b0x1111111 (
b0x1111111 8
b1010 :
b1000 9
1/
#310
0/
#315
b1x00000000 $
b0x11111111 (
b0x11111111 8
b1010 :
x"
x!
x#
b1001 9
14
13
1/
#320
0/
#325
bx000000000 $
bx111111111 (
bx111111111 8
b1010 :
b1010 9
1/
#330
0/
#335
01
12
b0 $
b1111111111 (
b1111111111 8
b1011 9
1)
1/
#340
0/
#345
bx000000000 $
bx111111111 (
bx111111111 8
b1010 :
b1100 9
1/
#350
0/
#355
0"
b1x00000000 $
b0x11111111 (
b0x11111111 8
b1010 :
1!
z#
b1101 9
04
03
1/
#360
0/
#365
b11x0000000 $
b0x1111111 (
b0x1111111 8
b1010 :
b1110 9
1/
#370
0/
#375
b111x000000 $
b0x111111 (
b0x111111 8
b1010 :
b1111 9
1/
#380
0/
#385
b1111x00000 $
b0x11111 (
b0x11111 8
b1010 :
b10000 9
1/
#390
0/
#395
b11111x0000 $
b0x1111 (
b0x1111 8
b1010 :
b10001 9
1/
#400
0/
#405
b111111x000 $
b0x111 (
b0x111 8
b1010 :
b10010 9
1/
#410
0/
#415
b1111111x00 $
b0x11 (
b0x11 8
b1010 :
b10011 9
1/
#420
0/
#425
b11111111x0 $
b0x1 (
b0x1 8
b1010 :
b10100 9
1/
#430
0/
#435
b111111111x $
b0x (
b0x 8
b1010 :
b10101 9
1/
#440
0/
#445
x"
z!
0#
1,
0?
x=
1@
x;
x>
x<
0+
b1111111111 $
1'
b0 (
b0 8
b0 9
1/
#450
0/
#455
b111111111x $
b0x (
b0x 8
b1010 :
0'
b1 9
0)
1/
#460
0/
#465
b11111111x0 $
b0x1 (
b0x1 8
b1010 :
b10 9
1/
#470
0/
#475
b1111111x00 $
b0x11 (
b0x11 8
b1010 :
b11 9
1/
#480
0/
#485
b111111x000 $
b0x111 (
b0x111 8
b1010 :
b100 9
1/
#490
0/
#495
b11111x0000 $
b0x1111 (
b0x1111 8
b1010 :
b101 9
1/
#500
0/
#505
b1111x00000 $
b0x11111 (
b0x11111 8
b1010 :
b110 9
1/
#510
0/
#515
1?
0@
11
02
b111x000000 $
b0x111111 (
b0x111111 8
b1010 :
b111 9
1/
#520
0/
#525
b11x0000000 $
b0x1111111 (
b0x1111111 8
b1010 :
b1000 9
1/
#530
0/
#535
b1x00000000 $
b0x11111111 (
b0x11111111 8
b1010 :
x!
x#
b1001 9
14
13
1/
#540
0/
#545
bx000000000 $
bx111111111 (
bx111111111 8
b1010 :
b1010 9
1/
#550
0/
#555
0?
1@
01
12
b0 $
b1111111111 (
b1111111111 8
b1011 9
1)
1/
#560
0/
#565
bx000000000 $
bx111111111 (
bx111111111 8
b1010 :
b1100 9
1/
#570
0/
#575
b1x00000000 $
b0x11111111 (
b0x11111111 8
b1010 :
z!
0#
b1101 9
04
03
1/
#580
0/
#585
b11x0000000 $
b0x1111111 (
b0x1111111 8
b1010 :
b1110 9
1/
#590
0/
#595
b111x000000 $
b0x111111 (
b0x111111 8
b1010 :
b1111 9
1/
#600
0/
#605
b1111x00000 $
b0x11111 (
b0x11111 8
b1010 :
b10000 9
1/
#610
0/
#615
b11111x0000 $
b0x1111 (
b0x1111 8
b1010 :
b10001 9
1/
#620
0/
#625
b111111x000 $
b0x111 (
b0x111 8
b1010 :
b10010 9
1/
#630
0/
#635
b1111111x00 $
b0x11 (
b0x11 8
b1010 :
b10011 9
1/
#640
0/
#645
b11111111x0 $
b0x1 (
b0x1 8
b1010 :
b10100 9
1/
#650
0/
#655
b111111111x $
b0x (
b0x 8
b1010 :
b10101 9
1/
#660
0/
#665
b1111111111 $
1'
b0 (
b0 8
b0 9
1/
#670
0/
#675
b111111111x $
b0x (
b0x 8
b1010 :
0'
b1 9
0)
1/
#680
0/
#685
b11111111x0 $
b0x1 (
b0x1 8
b1010 :
b10 9
1/
#690
0/
#695
b1111111x00 $
b0x11 (
b0x11 8
b1010 :
b11 9
1/
#700
0/
#705
b111111x000 $
b0x111 (
b0x111 8
b1010 :
b100 9
1/
#710
0/
#715
b11111x0000 $
b0x1111 (
b0x1111 8
b1010 :
b101 9
1/
#720
0/
#725
b1111x00000 $
b0x11111 (
b0x11111 8
b1010 :
b110 9
1/
#730
0/
#735
1?
0@
11
02
b111x000000 $
b0x111111 (
b0x111111 8
b1010 :
b111 9
1/
#740
0/
#745
b11x0000000 $
b0x1111111 (
b0x1111111 8
b1010 :
b1000 9
1/
#750
0/
#755
b1x00000000 $
b0x11111111 (
b0x11111111 8
b1010 :
x!
x#
b1001 9
14
13
1/
#760
0/
#765
bx000000000 $
bx111111111 (
bx111111111 8
b1010 :
b1010 9
1/
#770
0/
#775
0?
1@
01
12
b0 $
b1111111111 (
b1111111111 8
b1011 9
1)
1/
#780
0/
#785
bx000000000 $
bx111111111 (
bx111111111 8
b1010 :
b1100 9
1/
#790
0/
#795
b1x00000000 $
b0x11111111 (
b0x11111111 8
b1010 :
z!
0#
b1101 9
04
03
1/
#800
0/
#805
b11x0000000 $
b0x1111111 (
b0x1111111 8
b1010 :
b1110 9
1/
#810
0/
#815
b111x000000 $
b0x111111 (
b0x111111 8
b1010 :
b1111 9
1/
#820
0/
#825
b1111x00000 $
b0x11111 (
b0x11111 8
b1010 :
b10000 9
1/
#830
0/
#835
b11111x0000 $
b0x1111 (
b0x1111 8
b1010 :
b10001 9
1/
#840
0/
#845
b111111x000 $
b0x111 (
b0x111 8
b1010 :
b10010 9
1/
#850
0/
#855
b1111111x00 $
b0x11 (
b0x11 8
b1010 :
b10011 9
1/
#860
0/
#865
b11111111x0 $
b0x1 (
b0x1 8
b1010 :
b10100 9
1/
#870
0/
#875
b111111111x $
b0x (
b0x 8
b1010 :
b10101 9
1/
#880
0/
#885
b1111111111 $
1'
b0 (
b0 8
b0 9
1/
